<svg width="29" height="21" viewBox="0 0 29 21" fill="none" xmlns="http://www.w3.org/2000/svg">
<path d="M11.3462 20L2 10.5M2 10.5L11.3462 1M2 10.5L29 10.5" stroke="#E25303" stroke-width="2"/>
</svg>
